Juan,anthony25famorcan@gmail.com,111,111111,sponge.jpg
Anthony,acfamorcan@aup.edu.ph,11,111111,sponge.jpg
Juan,anthony25famorcan@gmail.com,222,11111111111,sponge.jpg
Juan,anthony25famorcan@gmail.com,111,111111,sponge.jpg
Anthony,acfamorcan@aup.edu.ph,11,111111,sponge.jpg
Juan,anthony25famorcan@gmail.com,222,11111111111,sponge.jpg
Juan,anthony25famorcan@gmail.com,111,111111,sponge.jpg
Anthony,acfamorcan@aup.edu.ph,11,111111,sponge.jpg
Juan,anthony25famorcan@gmail.com,222,11111111111,sponge.jpg
Juan,anthony25famorcan@gmail.com,111,111111,sponge.jpg
Anthony,acfamorcan@aup.edu.ph,11,111111,sponge.jpg
Juan,anthony25famorcan@gmail.com,222,11111111111,sponge.jpg
Juan,anthony25famorcan@gmail.com,111,111111,sponge.jpg
Anthony,acfamorcan@aup.edu.ph,11,111111,sponge.jpg
Juan,anthony25famorcan@gmail.com,222,11111111111,sponge.jpg
Juan,anthony25famorcan@gmail.com,111,111111,sponge.jpg
Anthony,acfamorcan@aup.edu.ph,11,111111,sponge.jpg
Juan,anthony25famorcan@gmail.com,222,11111111111,sponge.jpg
Juan,anthony25famorcan@gmail.com,111,111111,sponge.jpg
Anthony,acfamorcan@aup.edu.ph,11,111111,sponge.jpg
Juan,anthony25famorcan@gmail.com,222,11111111111,sponge.jpg
Juan,anthony25famorcan@gmail.com,22,111111,sponge.jpg
